Consumer Behavior and Shopping Habits
…
All other associations are weak (values much less than 0.5), indicating little to no association between those pairs of variables.

Let take a closer look at these variables

shopping_behavior %>% 
  count(item_purchased, category) %>% 
  pivot_wider(names_from = category,
              values_from = n) %>% 
  arrange(desc(Accessories),
          desc(Clothing),
          desc(Footwear),
          desc(Outerwear)) 

# A tibble: 25 × 5
   item_purchased Accessories Clothing Footwear Outerwear
   <chr>                <int>    <int>    <int>     <int>
 1 Jewelry                171       NA       NA        NA
 2 Belt                   161       NA       NA        NA
 3 Sunglasses             161       NA       NA        NA
 4 Scarf                  157       NA       NA        NA
 5 Hat                    154       NA       NA        NA
 6 Handbag                153       NA       NA        NA
 7 Backpack               143       NA       NA        NA
 8 Gloves                 140       NA       NA        NA
 9 Blouse                  NA      171       NA        NA
10 Pants                   NA      171       NA        NA
# ℹ 15 more rows
…
clust_wf <- workflow() %>% 
  add_recipe(clust_rec) %>% 
  add_model(clust_spec)

clust_fit <- fit(clust_wf, shopping_behavior)

clust_fit %>% 
  augment(shopping_behavior)

# A tibble: 3,900 × 19
   customer_id   age gender item_purchased category purchase_amount_usd location
         <dbl> <dbl> <chr>  <chr>          <chr>                  <dbl> <chr>   
 1           1    55 Male   Blouse         Clothing                  53 Kentucky
 2           2    19 Male   Sweater        Clothing                  64 Maine   
 3           3    50 Male   Jeans          Clothing                  73 Massach…
 4           4    21 Male   Sandals        Footwear                  90 Rhode I…
 5           5    45 Male   Blouse         Clothing                  49 Oregon  
 6           6    46 Male   Sneakers       Footwear                  20 Wyoming 
 7           7    63 Male   Shirt          Clothing                  85 Montana 
 8           8    27 Male   Shorts         Clothing                  34 Louisia…
 9           9    26 Male   Coat           Outerwe…                  97 West Vi…
10          10    57 Male   Handbag        Accesso…                  31 Missouri
# ℹ 3,890 more rows
# ℹ 12 more variables: size <chr>, color <chr>, season <chr>,
#   review_rating <dbl>, subscription_status <chr>, shipping_type <chr>,
#   discount_applied <chr>, promo_code_used <chr>, previous_purchases <dbl>,
#   payment_method <chr>, frequency_of_purchases <chr>, .pred_cluster <fct>
…
